{
    "command": "C:/Users/verhe/Documents/storied/repos/woody-puzzle-solver/src/server/service.py",
    "commit_hash": "495b2399e7b6",
    "dataset_type": "generic",
    "ludwig_version": "0.1.0",
    "model_definition": {
        "combiner": {
            "type": "concat"
        },
        "input_features": [
            {
                "name": "column_0",
                "tied_weights": null,
                "type": "binary"
            },
            {
                "name": "column_1",
                "tied_weights": null,
                "type": "binary"
            },
            {
                "name": "column_2",
                "tied_weights": null,
                "type": "binary"
            },
            {
                "name": "column_3",
                "tied_weights": null,
                "type": "binary"
            },
            {
                "name": "column_4",
                "tied_weights": null,
                "type": "binary"
            },
            {
                "name": "column_5",
                "tied_weights": null,
                "type": "binary"
            },
            {
                "name": "column_6",
                "tied_weights": null,
                "type": "binary"
            },
            {
                "name": "column_7",
                "tied_weights": null,
                "type": "binary"
            },
            {
                "name": "column_8",
                "tied_weights": null,
                "type": "binary"
            },
            {
                "name": "column_9",
                "tied_weights": null,
                "type": "binary"
            },
            {
                "name": "column_10",
                "tied_weights": null,
                "type": "binary"
            },
            {
                "name": "column_11",
                "tied_weights": null,
                "type": "binary"
            },
            {
                "name": "column_12",
                "tied_weights": null,
                "type": "binary"
            },
            {
                "name": "column_13",
                "tied_weights": null,
                "type": "binary"
            },
            {
                "name": "column_14",
                "tied_weights": null,
                "type": "binary"
            },
            {
                "name": "column_15",
                "tied_weights": null,
                "type": "binary"
            },
            {
                "name": "column_16",
                "tied_weights": null,
                "type": "binary"
            },
            {
                "name": "column_17",
                "tied_weights": null,
                "type": "binary"
            },
            {
                "name": "column_18",
                "tied_weights": null,
                "type": "binary"
            },
            {
                "name": "column_19",
                "tied_weights": null,
                "type": "binary"
            },
            {
                "name": "column_20",
                "tied_weights": null,
                "type": "binary"
            },
            {
                "name": "column_21",
                "tied_weights": null,
                "type": "binary"
            },
            {
                "name": "column_22",
                "tied_weights": null,
                "type": "binary"
            },
            {
                "name": "column_23",
                "tied_weights": null,
                "type": "binary"
            },
            {
                "name": "column_24",
                "tied_weights": null,
                "type": "binary"
            },
            {
                "name": "column_25",
                "tied_weights": null,
                "type": "binary"
            },
            {
                "name": "column_26",
                "tied_weights": null,
                "type": "binary"
            },
            {
                "name": "column_27",
                "tied_weights": null,
                "type": "binary"
            },
            {
                "name": "column_28",
                "tied_weights": null,
                "type": "binary"
            },
            {
                "name": "column_29",
                "tied_weights": null,
                "type": "binary"
            },
            {
                "name": "column_30",
                "tied_weights": null,
                "type": "binary"
            },
            {
                "name": "column_31",
                "tied_weights": null,
                "type": "binary"
            },
            {
                "name": "column_32",
                "tied_weights": null,
                "type": "binary"
            },
            {
                "name": "column_33",
                "tied_weights": null,
                "type": "binary"
            },
            {
                "name": "column_34",
                "tied_weights": null,
                "type": "binary"
            },
            {
                "name": "column_35",
                "tied_weights": null,
                "type": "binary"
            },
            {
                "name": "column_36",
                "tied_weights": null,
                "type": "binary"
            },
            {
                "name": "column_37",
                "tied_weights": null,
                "type": "binary"
            },
            {
                "name": "column_38",
                "tied_weights": null,
                "type": "binary"
            },
            {
                "name": "column_39",
                "tied_weights": null,
                "type": "binary"
            },
            {
                "name": "column_40",
                "tied_weights": null,
                "type": "binary"
            },
            {
                "name": "column_41",
                "tied_weights": null,
                "type": "binary"
            },
            {
                "name": "column_42",
                "tied_weights": null,
                "type": "binary"
            },
            {
                "name": "column_43",
                "tied_weights": null,
                "type": "binary"
            },
            {
                "name": "column_44",
                "tied_weights": null,
                "type": "binary"
            },
            {
                "name": "column_45",
                "tied_weights": null,
                "type": "binary"
            },
            {
                "name": "column_46",
                "tied_weights": null,
                "type": "binary"
            },
            {
                "name": "column_47",
                "tied_weights": null,
                "type": "binary"
            },
            {
                "name": "column_48",
                "tied_weights": null,
                "type": "binary"
            },
            {
                "name": "column_49",
                "tied_weights": null,
                "type": "binary"
            },
            {
                "name": "column_50",
                "tied_weights": null,
                "type": "binary"
            },
            {
                "name": "column_51",
                "tied_weights": null,
                "type": "binary"
            },
            {
                "name": "column_52",
                "tied_weights": null,
                "type": "binary"
            },
            {
                "name": "column_53",
                "tied_weights": null,
                "type": "binary"
            },
            {
                "name": "column_54",
                "tied_weights": null,
                "type": "binary"
            },
            {
                "name": "column_55",
                "tied_weights": null,
                "type": "binary"
            },
            {
                "name": "column_56",
                "tied_weights": null,
                "type": "binary"
            },
            {
                "name": "column_57",
                "tied_weights": null,
                "type": "binary"
            },
            {
                "name": "column_58",
                "tied_weights": null,
                "type": "binary"
            },
            {
                "name": "column_59",
                "tied_weights": null,
                "type": "binary"
            },
            {
                "name": "column_60",
                "tied_weights": null,
                "type": "binary"
            },
            {
                "name": "column_61",
                "tied_weights": null,
                "type": "binary"
            },
            {
                "name": "column_62",
                "tied_weights": null,
                "type": "binary"
            },
            {
                "name": "column_63",
                "tied_weights": null,
                "type": "binary"
            },
            {
                "name": "column_64",
                "tied_weights": null,
                "type": "binary"
            },
            {
                "name": "column_65",
                "tied_weights": null,
                "type": "binary"
            },
            {
                "name": "column_66",
                "tied_weights": null,
                "type": "binary"
            },
            {
                "name": "column_67",
                "tied_weights": null,
                "type": "binary"
            },
            {
                "name": "column_68",
                "tied_weights": null,
                "type": "binary"
            },
            {
                "name": "column_69",
                "tied_weights": null,
                "type": "binary"
            },
            {
                "name": "column_70",
                "tied_weights": null,
                "type": "binary"
            },
            {
                "name": "column_71",
                "tied_weights": null,
                "type": "binary"
            },
            {
                "name": "column_72",
                "tied_weights": null,
                "type": "binary"
            },
            {
                "name": "column_73",
                "tied_weights": null,
                "type": "binary"
            },
            {
                "name": "column_74",
                "tied_weights": null,
                "type": "binary"
            },
            {
                "name": "column_75",
                "tied_weights": null,
                "type": "binary"
            },
            {
                "name": "column_76",
                "tied_weights": null,
                "type": "binary"
            },
            {
                "name": "column_77",
                "tied_weights": null,
                "type": "binary"
            },
            {
                "name": "column_78",
                "tied_weights": null,
                "type": "binary"
            },
            {
                "name": "column_79",
                "tied_weights": null,
                "type": "binary"
            },
            {
                "name": "column_80",
                "tied_weights": null,
                "type": "binary"
            },
            {
                "name": "column_81",
                "tied_weights": null,
                "type": "binary"
            },
            {
                "name": "column_82",
                "tied_weights": null,
                "type": "binary"
            },
            {
                "name": "column_83",
                "tied_weights": null,
                "type": "binary"
            },
            {
                "name": "column_84",
                "tied_weights": null,
                "type": "binary"
            },
            {
                "name": "column_85",
                "tied_weights": null,
                "type": "binary"
            },
            {
                "name": "column_86",
                "tied_weights": null,
                "type": "binary"
            },
            {
                "name": "column_87",
                "tied_weights": null,
                "type": "binary"
            },
            {
                "name": "column_88",
                "tied_weights": null,
                "type": "binary"
            },
            {
                "name": "column_89",
                "tied_weights": null,
                "type": "binary"
            },
            {
                "name": "column_90",
                "tied_weights": null,
                "type": "binary"
            },
            {
                "name": "column_91",
                "tied_weights": null,
                "type": "binary"
            },
            {
                "name": "column_92",
                "tied_weights": null,
                "type": "binary"
            },
            {
                "name": "column_93",
                "tied_weights": null,
                "type": "binary"
            },
            {
                "name": "column_94",
                "tied_weights": null,
                "type": "binary"
            },
            {
                "name": "column_95",
                "tied_weights": null,
                "type": "binary"
            },
            {
                "name": "column_96",
                "tied_weights": null,
                "type": "binary"
            },
            {
                "name": "column_97",
                "tied_weights": null,
                "type": "binary"
            },
            {
                "name": "column_98",
                "tied_weights": null,
                "type": "binary"
            },
            {
                "name": "column_99",
                "tied_weights": null,
                "type": "binary"
            }
        ],
        "output_features": [
            {
                "dependencies": [],
                "loss": {
                    "type": "mean_squared_error",
                    "weight": 1
                },
                "name": "score",
                "reduce_dependencies": "sum",
                "reduce_input": "sum",
                "type": "numerical",
                "weight": 1
            }
        ],
        "preprocessing": {
            "bag": {
                "fill_value": "",
                "format": "space",
                "lowercase": 10000,
                "missing_value_strategy": "fill_with_const",
                "most_common": false
            },
            "binary": {
                "fill_value": 0,
                "missing_value_strategy": "fill_with_const"
            },
            "category": {
                "fill_value": "<UNK>",
                "lowercase": false,
                "missing_value_strategy": "fill_with_const",
                "most_common": 10000
            },
            "force_split": false,
            "image": {
                "missing_value_strategy": "backfill"
            },
            "numerical": {
                "fill_value": 0,
                "missing_value_strategy": "fill_with_const"
            },
            "sequence": {
                "fill_value": "",
                "format": "space",
                "lowercase": false,
                "missing_value_strategy": "fill_with_const",
                "most_common": 20000,
                "padding": "right",
                "padding_symbol": "<PAD>",
                "sequence_length_limit": 256,
                "unknown_symbol": "<UNK>"
            },
            "set": {
                "fill_value": "",
                "format": "space",
                "lowercase": false,
                "missing_value_strategy": "fill_with_const",
                "most_common": 10000
            },
            "split_probabilities": [
                0.7,
                0.1,
                0.2
            ],
            "stratify": null,
            "text": {
                "char_format": "characters",
                "char_most_common": 70,
                "char_sequence_length_limit": 1024,
                "fill_value": "",
                "lowercase": true,
                "missing_value_strategy": "fill_with_const",
                "padding": "right",
                "padding_symbol": "<PAD>",
                "unknown_symbol": "<UNK>",
                "word_format": "space_punct",
                "word_most_common": 20000,
                "word_sequence_length_limit": 256
            },
            "timeseries": {
                "fill_value": "",
                "format": "space",
                "missing_value_strategy": "fill_with_const",
                "padding": "right",
                "padding_value": 0,
                "timeseries_length_limit": 256
            }
        },
        "training": {
            "batch_size": 128,
            "bucketing_field": null,
            "decay": false,
            "decay_rate": 0.96,
            "decay_steps": 10000,
            "dropout_rate": 0.0,
            "early_stop": 3,
            "epochs": 200,
            "gradient_clipping": null,
            "increase_batch_size_on_plateau": 0,
            "increase_batch_size_on_plateau_max": 512,
            "increase_batch_size_on_plateau_patience": 5,
            "increase_batch_size_on_plateau_rate": 2,
            "learning_rate": 0.001,
            "learning_rate_warmup_epochs": 5,
            "optimizer": {
                "beta1": 0.9,
                "beta2": 0.999,
                "epsilon": 1e-08,
                "type": "adam"
            },
            "reduce_learning_rate_on_plateau": 0,
            "reduce_learning_rate_on_plateau_patience": 5,
            "reduce_learning_rate_on_plateau_rate": 0.5,
            "regularization_lambda": 0,
            "regularizer": "l2",
            "staircase": false,
            "validation_field": "combined",
            "validation_measure": "loss"
        }
    },
    "random_seed": 42
}